-------------------------------------------------------------------------------
Test set: br.usp.ime.vision.dataset.tests.unit.ConfigsTest
-------------------------------------------------------------------------------
Tests run: 10, Failures: 0, Errors: 0, Skipped: 0, Time elapsed: 0.009 sec
